Predicting Round Outcomes in Tom Clancy’s Rainbow Six Siege
…
# looks balanced among diff platforms

data2 %>%
  select(objectivelocation, role, haswon) %>%
  group_by(objectivelocation, role) %>%
  summarise(winning_avg = mean(haswon))

## `summarise()` has grouped output by 'objectivelocation'. You can override using
## the `.groups` argument.

## # A tibble: 282 × 3
## # Groups:   objectivelocation [142]
##    objectivelocation   role     winning_avg
##    <chr>               <chr>          <dbl>
##  1 1F_ARMORY_ROOM      Attacker       0.517
##  2 1F_ARMORY_ROOM      Defender       0.5  
##  3 1F_AUNT'S_APARTMENT Attacker       0.588
##  4 1F_AUNT'S_APARTMENT Defender       0.316
##  5 1F_BBQ              Attacker       0.429
##  6 1F_BBQ              Defender       0.5  
##  7 1F_BBQ-1F_KITCHEN   Attacker       0.5  
##  8 1F_BBQ-1F_KITCHEN   Defender       0.6  
##  9 1F_BEDROOM          Attacker       0.857
## 10 1F_BEDROOM          Defender       0.188
## # ℹ 272 more rows
…
rainbow_fold <- vfold_cv(rainbow_train, v = 5)

rainbow_recipe <- recipe(
  haswon ~ clearancelevel + skillrank + role + nbkills + isdead + objectivelocation, 
  data = rainbow_train) %>% 
  step_dummy(all_nominal_predictors()) %>%
  step_interact(terms = ~ starts_with('role'):starts_with('objectivelocation')) %>%
  step_nzv(all_predictors()) %>%
 step_normalize(all_numeric_predictors())

prep(rainbow_recipe) %>% bake(new_data = rainbow_train)

## # A tibble: 3,749 × 9
##    clearancelevel nbkills isdead haswon skillrank_Bronze skillrank_Silver
##             <dbl>   <dbl>  <dbl> <fct>             <dbl>            <dbl>
##  1        -1.35     0.324  0.659 0                 3.24            -0.490
##  2         0.221   -0.763  0.659 0                -0.309           -0.490
##  3         1.03     0.324  0.659 1                -0.309           -0.490
##  4         1.01    -0.763  0.659 0                -0.309           -0.490
##  5        -0.0970  -0.763  0.659 0                -0.309           -0.490
##  6        -0.648    0.324 -1.52  1                 3.24            -0.490
##  7         2.23     0.324  0.659 1                -0.309           -0.490
##  8         0.0514  -0.763 -1.52  1                -0.309           -0.490
##  9         1.92     1.41  -1.52  1                -0.309           -0.490
## 10        -1.03    -0.763  0.659 1                -0.309           -0.490
## # ℹ 3,739 more rows
## # ℹ 3 more variables: skillrank_Gold <dbl>, skillrank_Platinum <dbl>,
## #   role_Defender <dbl>
…
collect_metrics(tune_rb_rf)

## # A tibble: 2,000 × 9
##     mtry trees min_n .metric  .estimator  mean     n std_err .config            
##    <int> <int> <int> <chr>    <chr>      <dbl> <int>   <dbl> <chr>              
##  1     1    10    50 accuracy binary     0.724     5 0.0258  Preprocessor1_Mode…
##  2     1    10    50 roc_auc  binary     0.764     5 0.0192  Preprocessor1_Mode…
##  3     2    10    50 accuracy binary     0.757     5 0.00607 Preprocessor1_Mode…
##  4     2    10    50 roc_auc  binary     0.773     5 0.00642 Preprocessor1_Mode…
##  5     3    10    50 accuracy binary     0.753     5 0.00647 Preprocessor1_Mode…
##  6     3    10    50 roc_auc  binary     0.768     5 0.00381 Preprocessor1_Mode…
##  7     4    10    50 accuracy binary     0.754     5 0.00536 Preprocessor1_Mode…
##  8     4    10    50 roc_auc  binary     0.775     5 0.00486 Preprocessor1_Mode…
##  9     5    10    50 accuracy binary     0.748     5 0.00592 Preprocessor1_Mode…
## 10     5    10    50 roc_auc  binary     0.772     5 0.00415 Preprocessor1_Mode…
## # ℹ 1,990 more rows
…
